<mxfile host="app.diagrams.net" modified="2020-11-16T11:16:26.673Z" agent="5.0 (X11; Linux x86_64) AppleWebKit/537.36 (KHTML, like Gecko) Chrome/86.0.4240.75 Safari/537.36" etag="rZE_1ySlulLQLawrf4x4" version="13.9.9" type="gitlab">
  <diagram id="2p21Ymm-83IfGhX7Sq0f" name="Page-1">
    <mxGraphModel dx="1494" dy="756" grid="1" gridSize="10" guides="1" tooltips="1" connect="1" arrows="1" fold="1" page="1" pageScale="1" pageWidth="827" pageHeight="1169" math="0" shadow="0">
      <root>
        <mxCell id="0" />
        <mxCell id="1" parent="0" />
        <mxCell id="cS7IGWHmxfOL7kOJmx17-32" value="&lt;font size=&quot;1&quot; color=&quot;#0066cc&quot;&gt;&lt;b style=&quot;font-size: 16px&quot;&gt;User&lt;br&gt;&lt;/b&gt;&lt;/font&gt;" style="text;html=1;resizable=0;autosize=1;align=center;verticalAlign=middle;points=[];fillColor=none;strokeColor=none;rounded=0;" vertex="1" parent="1">
          <mxGeometry x="29.99999999999998" y="110" width="50" height="20" as="geometry" />
        </mxCell>
        <mxCell id="cS7IGWHmxfOL7kOJmx17-2" value="" style="aspect=fixed;html=1;points=[];align=center;image;fontSize=12;image=img/lib/mscae/Person.svg;" vertex="1" parent="1">
          <mxGeometry x="37.25" y="48.25" width="38.3" height="51.75" as="geometry" />
        </mxCell>
        <mxCell id="cS7IGWHmxfOL7kOJmx17-12" value="" style="pointerEvents=1;shadow=0;dashed=0;html=1;strokeColor=none;labelPosition=center;verticalLabelPosition=bottom;verticalAlign=top;outlineConnect=0;align=center;shape=mxgraph.office.servers.physical_host_farm;fillColor=#2072B8;" vertex="1" parent="1">
          <mxGeometry x="393.2674246169056" y="24.5" width="121.37024221453288" height="108.78270509977828" as="geometry" />
        </mxCell>
        <mxCell id="cS7IGWHmxfOL7kOJmx17-13" value="" style="pointerEvents=1;shadow=0;dashed=0;html=1;strokeColor=none;labelPosition=center;verticalLabelPosition=bottom;verticalAlign=top;outlineConnect=0;align=center;shape=mxgraph.office.users.users;fillColor=#2072B8;" vertex="1" parent="1">
          <mxGeometry x="30" y="260" width="61.86" height="64.04" as="geometry" />
        </mxCell>
        <mxCell id="cS7IGWHmxfOL7kOJmx17-14" value="" style="pointerEvents=1;shadow=0;dashed=0;html=1;strokeColor=none;labelPosition=center;verticalLabelPosition=bottom;verticalAlign=top;outlineConnect=0;align=center;shape=mxgraph.office.users.users;fillColor=#2072B8;" vertex="1" parent="1">
          <mxGeometry x="537.76" y="94.21" width="66.46" height="65.79" as="geometry" />
        </mxCell>
        <mxCell id="cS7IGWHmxfOL7kOJmx17-22" value="" style="group" vertex="1" connectable="0" parent="1">
          <mxGeometry x="436.61393969352446" y="155.4988913525499" width="57.79535343549185" height="91.92904656319291" as="geometry" />
        </mxCell>
        <mxCell id="cS7IGWHmxfOL7kOJmx17-18" value="&lt;b&gt;CPU&lt;/b&gt;" style="text;html=1;resizable=0;autosize=1;align=center;verticalAlign=middle;points=[];fillColor=#647687;strokeColor=#314354;rounded=0;fontColor=#ffffff;" vertex="1" parent="cS7IGWHmxfOL7kOJmx17-22">
          <mxGeometry width="40" height="20" as="geometry" />
        </mxCell>
        <mxCell id="cS7IGWHmxfOL7kOJmx17-19" value="&lt;b&gt;RAM&lt;/b&gt;" style="text;html=1;resizable=0;autosize=1;align=center;verticalAlign=middle;points=[];fillColor=#647687;strokeColor=#314354;rounded=0;fontColor=#ffffff;" vertex="1" parent="cS7IGWHmxfOL7kOJmx17-22">
          <mxGeometry y="30.64301552106431" width="40" height="20" as="geometry" />
        </mxCell>
        <mxCell id="cS7IGWHmxfOL7kOJmx17-20" value="&lt;b&gt;DISK&lt;br&gt;&lt;/b&gt;" style="text;html=1;resizable=0;autosize=1;align=center;verticalAlign=middle;points=[];fillColor=#647687;strokeColor=#314354;rounded=0;fontColor=#ffffff;" vertex="1" parent="cS7IGWHmxfOL7kOJmx17-22">
          <mxGeometry y="61.28603104212862" width="40" height="20" as="geometry" />
        </mxCell>
        <mxCell id="cS7IGWHmxfOL7kOJmx17-25" value="" style="shape=arrow;endArrow=classic;html=1;targetPerimeterSpacing=10;strokeWidth=4;sourcePerimeterSpacing=10;endSize=10;startSize=10;shadow=0;sketch=1;strokeColor=#B3B3B3;" edge="1" parent="1">
          <mxGeometry x="48.83" y="32.24" width="50" height="50" as="geometry">
            <mxPoint x="330.00439446366784" y="193.8819068736142" as="sourcePoint" />
            <mxPoint x="388" y="166.12" as="targetPoint" />
          </mxGeometry>
        </mxCell>
        <mxCell id="cS7IGWHmxfOL7kOJmx17-27" value="" style="aspect=fixed;html=1;points=[];align=center;image;fontSize=12;image=img/lib/mscae/Cloud_Services_Classic.svg;" vertex="1" parent="1">
          <mxGeometry x="180" y="147.76" width="133.63" height="112.24" as="geometry" />
        </mxCell>
        <mxCell id="cS7IGWHmxfOL7kOJmx17-28" value="" style="shape=arrow;endArrow=classic;html=1;targetPerimeterSpacing=10;strokeWidth=4;sourcePerimeterSpacing=10;endSize=10;startSize=10;shadow=0;sketch=1;strokeColor=#B3B3B3;" edge="1" parent="1">
          <mxGeometry x="26.659999999999997" y="26.75" width="50" height="50" as="geometry">
            <mxPoint x="177.79484923381122" y="170.0060975609756" as="sourcePoint" />
            <mxPoint x="119.99949579831939" y="124.04157427937919" as="targetPoint" />
          </mxGeometry>
        </mxCell>
        <mxCell id="cS7IGWHmxfOL7kOJmx17-29" value="" style="shape=arrow;endArrow=classic;html=1;targetPerimeterSpacing=10;strokeWidth=4;sourcePerimeterSpacing=10;endSize=10;startSize=10;shadow=0;sketch=1;strokeColor=#B3B3B3;" edge="1" parent="1">
          <mxGeometry x="41.11" y="24.5" width="50" height="50" as="geometry">
            <mxPoint x="170" y="250" as="sourcePoint" />
            <mxPoint x="120.00065743944641" y="278.07095343680714" as="targetPoint" />
          </mxGeometry>
        </mxCell>
        <mxCell id="cS7IGWHmxfOL7kOJmx17-30" value="&lt;font size=&quot;1&quot; color=&quot;#0066cc&quot;&gt;&lt;b style=&quot;font-size: 16px&quot;&gt;OPS&lt;/b&gt;&lt;/font&gt;" style="text;html=1;resizable=0;autosize=1;align=center;verticalAlign=middle;points=[];fillColor=none;strokeColor=none;rounded=0;" vertex="1" parent="1">
          <mxGeometry x="545.9858082056353" y="170.0019068736142" width="50" height="20" as="geometry" />
        </mxCell>
        <mxCell id="cS7IGWHmxfOL7kOJmx17-31" value="&lt;font size=&quot;1&quot; color=&quot;#0066cc&quot;&gt;&lt;b style=&quot;font-size: 16px&quot;&gt;DEV&lt;/b&gt;&lt;/font&gt;" style="text;html=1;resizable=0;autosize=1;align=center;verticalAlign=middle;points=[];fillColor=none;strokeColor=none;rounded=0;" vertex="1" parent="1">
          <mxGeometry x="37.25" y="339.3569844789358" width="50" height="20" as="geometry" />
        </mxCell>
      </root>
    </mxGraphModel>
  </diagram>
</mxfile>
